%YAML 1.1
%TAG !u! tag:unity3d.com,2011:
--- !u!114 &11400000
MonoBehaviour:
  m_ObjectHideFlags: 0
  m_CorrespondingSourceObject: {fileID: 0}
  m_PrefabInstance: {fileID: 0}
  m_PrefabAsset: {fileID: 0}
  m_GameObject: {fileID: 0}
  m_Enabled: 1
  m_EditorHideFlags: 0
  m_Script: {fileID: 11500000, guid: 692ff4264d7c6fd488dc9c1988695d80, type: 3}
  m_Name: Down
  m_EditorClassIdentifier: 
  CurrentValue: 0
  LockVariable: 0
  LockedValue: 0
