%YAML 1.1
%TAG !u! tag:unity3d.com,2011:
--- !u!114 &11400000
MonoBehaviour:
  m_ObjectHideFlags: 0
  m_CorrespondingSourceObject: {fileID: 0}
  m_PrefabInstance: {fileID: 0}
  m_PrefabAsset: {fileID: 0}
  m_GameObject: {fileID: 0}
  m_Enabled: 1
  m_EditorHideFlags: 0
  m_Script: {fileID: 11500000, guid: 97785dd0b1358ec49822151e534589c2, type: 3}
  m_Name: RhythmManager_Story
  m_EditorClassIdentifier: 
  LeftContact: {fileID: 11400000, guid: 609ed520ade4da741a015168139a96ab, type: 2}
  RightContact: {fileID: 11400000, guid: 78cfee845aaf7614dabc89d31bf07630, type: 2}
  UpContact: {fileID: 11400000, guid: ef1cda9a8a206cc4a9e370bf97e2d2dd, type: 2}
  DownContact: {fileID: 11400000, guid: 7eb361d2cf086844e8070d297308ca2d, type: 2}
  LeftWarning: {fileID: 11400000, guid: cbb77a1ad90d6ab4e840cf833429a77b, type: 2}
  RightWarning: {fileID: 11400000, guid: 645802567b5bef249b49f4dc81388832, type: 2}
  UpWarning: {fileID: 11400000, guid: 3c394d24a6c64ad46a62310765a728bc, type: 2}
  DownWarning: {fileID: 11400000, guid: a0f183dae46c6264db0ad89ed5ded88d, type: 2}
  rhythm: {fileID: 11400000, guid: 0efb88d873be83a42ae5d7dd64c908e6, type: 2}
  FullRandomization: 0
  speedMS: 353
  futureVision: 2
  reactionWindow: 1
  initSpawnChance: 0.3
  spawnChance: 0.3
  spawnIncrease: 0.005
  randomWhythm: 00030000003000020000003001000400300004000400100300000200400300300300020030010020020010030010020010010020001003002000100100400300100300100100100400400200300400100400100100300400300200200300400200100
  song: {fileID: 8300000, guid: 4a6ae2a0bd0117245b0b0eb20748da3c, type: 3}
  currentValue: 0
  predictedValue: 0
  WarningLengthMS: {fileID: 11400000, guid: a1860f5723c4a47438681739d637d984, type: 2}
  ReactionWindowLengthMS: {fileID: 11400000, guid: 25d769d2c471bcc48a3626ee7b4aafa4, type: 2}
  index: 455
  gracePeriod: 2
  currGracePeriod: 2
